{
  "profiles": {
    "ConvertInspectCodeToCodeClimate": {
      "commandName": "Project",
      "commandLineArgs": "C:\\projects\\ProjectTemplate\\artifacts\\codequality\\XPlat.InspectCode.xml;C:\\projects\\ProjectTemplate\\artifacts\\codequality\\FullFw.InspectCode.xml C:\\projects\\ProjectTemplate\\artifacts\\codequality\\codeQuality.json C:\\projects\\ProjectTemplate"
    }
  }
}